{
    "tracks": {
        "href": "https://api.spotify.com/v1/search?query=Mr+Brightside&type=track&offset=2&limit=3",
        "items": [
            {
                "album": {
                    "album_type": "compilation",
                    "artists": [
                        {
                            "external_urls": {
                                "spotify": "https://open.spotify.com/artist/0LyfQWJT6nXafLPZqxe9Of"
                            },
                            "href": "https://api.spotify.com/v1/artists/0LyfQWJT6nXafLPZqxe9Of",
                            "id": "0LyfQWJT6nXafLPZqxe9Of",
                            "name": "Various Artists",
                            "type": "artist",
                            "uri": "spotify:artist:0LyfQWJT6nXafLPZqxe9Of"
                        }
                    ],
                    "available_markets": [
                        "AD",
                        "AE",
                        "AR",
                        "AT",
                        "AU",
                        "BE",
                        "BG",
                        "BH",
                        "BO",
                        "BR",
                        "CA",
                        "CH",
                        "CL",
                        "CO",
                        "CR",
                        "CY",
                        "CZ",
                        "DE",
                        "DK",
                        "DO",
                        "DZ",
                        "EC",
                        "EE",
                        "EG",
                        "ES",
                        "FI",
                        "FR",
                        "GB",
                        "GR",
                        "GT",
                        "HK",
                        "HN",
                        "HU",
                        "ID",
                        "IE",
                        "IL",
                        "IN",
                        "IS",
                        "IT",
                        "JO",
                        "JP",
                        "KW",
                        "LB",
                        "LI",
                        "LT",
                        "LU",
                        "LV",
                        "MA",
                        "MC",
                        "MT",
                        "MX",
                        "MY",
                        "NI",
                        "NL",
                        "NO",
                        "NZ",
                        "OM",
                        "PA",
                        "PE",
                        "PH",
                        "PL",
                        "PS",
                        "PT",
                        "PY",
                        "QA",
                        "RO",
                        "SA",
                        "SE",
                        "SG",
                        "SK",
                        "SV",
                        "TH",
                        "TN",
                        "TR",
                        "TW",
                        "US",
                        "UY",
                        "VN",
                        "ZA"
                    ],
                    "external_urls": {
                        "spotify": "https://open.spotify.com/album/75IiPGLXBBGpG8QCMweRC4"
                    },
                    "href": "https://api.spotify.com/v1/albums/75IiPGLXBBGpG8QCMweRC4",
                    "id": "75IiPGLXBBGpG8QCMweRC4",
                    "images": [
                        {
                            "height": 640,
                            "url": "https://i.scdn.co/image/ab67616d0000b273991ca3d57d53c64ae9515e00",
                            "width": 640
                        },
                        {
                            "height": 300,
                            "url": "https://i.scdn.co/image/ab67616d00001e02991ca3d57d53c64ae9515e00",
                            "width": 300
                        },
                        {
                            "height": 64,
                            "url": "https://i.scdn.co/image/ab67616d00004851991ca3d57d53c64ae9515e00",
                            "width": 64
                        }
                    ],
                    "name": "Got You Covered, Vol. 2",
                    "release_date": "2018-01-26",
                    "release_date_precision": "day",
                    "total_tracks": 15,
                    "type": "album",
                    "uri": "spotify:album:75IiPGLXBBGpG8QCMweRC4"
                },
                "artists": [
                    {
                        "external_urls": {
                            "spotify": "https://open.spotify.com/artist/56LuTyFDFBgcq4hkc4XMu5"
                        },
                        "href": "https://api.spotify.com/v1/artists/56LuTyFDFBgcq4hkc4XMu5",
                        "id": "56LuTyFDFBgcq4hkc4XMu5",
                        "name": "WVNDER",
                        "type": "artist",
                        "uri": "spotify:artist:56LuTyFDFBgcq4hkc4XMu5"
                    }
                ],
                "available_markets": [
                    "AD",
                    "AE",
                    "AR",
                    "AT",
                    "AU",
                    "BE",
                    "BG",
                    "BH",
                    "BO",
                    "BR",
                    "CA",
                    "CH",
                    "CL",
                    "CO",
                    "CR",
                    "CY",
                    "CZ",
                    "DE",
                    "DK",
                    "DO",
                    "DZ",
                    "EC",
                    "EE",
                    "EG",
                    "ES",
                    "FI",
                    "FR",
                    "GB",
                    "GR",
                    "GT",
                    "HK",
                    "HN",
                    "HU",
                    "ID",
                    "IE",
                    "IL",
                    "IN",
                    "IS",
                    "IT",
                    "JO",
                    "JP",
                    "KW",
                    "LB",
                    "LI",
                    "LT",
                    "LU",
                    "LV",
                    "MA",
                    "MC",
                    "MT",
                    "MX",
                    "MY",
                    "NI",
                    "NL",
                    "NO",
                    "NZ",
                    "OM",
                    "PA",
                    "PE",
                    "PH",
                    "PL",
                    "PS",
                    "PT",
                    "PY",
                    "QA",
                    "RO",
                    "SA",
                    "SE",
                    "SG",
                    "SK",
                    "SV",
                    "TH",
                    "TN",
                    "TR",
                    "TW",
                    "US",
                    "UY",
                    "VN",
                    "ZA"
                ],
                "disc_number": 1,
                "duration_ms": 223004,
                "explicit": false,
                "external_ids": {
                    "isrc": "QMMUK1800031"
                },
                "external_urls": {
                    "spotify": "https://open.spotify.com/track/3geCCIefh9INnDpFvnRMG2"
                },
                "href": "https://api.spotify.com/v1/tracks/3geCCIefh9INnDpFvnRMG2",
                "id": "3geCCIefh9INnDpFvnRMG2",
                "is_local": false,
                "name": "Mr. Brightside",
                "popularity": 45,
                "preview_url": "https://p.scdn.co/mp3-preview/daff6ad9d051b6d0e94d6ee767380b5f04c0407b?cid=b1eb900278bb40c4aad752d96dee75a3",
                "track_number": 4,
                "type": "track",
                "uri": "spotify:track:3geCCIefh9INnDpFvnRMG2"
            },
            {
                "album": {
                    "album_type": "compilation",
                    "artists": [
                        {
                            "external_urls": {
                                "spotify": "https://open.spotify.com/artist/0C0XlULifJtAgn6ZNCW2eu"
                            },
                            "href": "https://api.spotify.com/v1/artists/0C0XlULifJtAgn6ZNCW2eu",
                            "id": "0C0XlULifJtAgn6ZNCW2eu",
                            "name": "The Killers",
                            "type": "artist",
                            "uri": "spotify:artist:0C0XlULifJtAgn6ZNCW2eu"
                        }
                    ],
                    "available_markets": [
                        "AD",
                        "AE",
                        "AR",
                        "AT",
                        "AU",
                        "BE",
                        "BG",
                        "BH",
                        "BO",
                        "BR",
                        "CA",
                        "CH",
                        "CL",
                        "CO",
                        "CR",
                        "CY",
                        "CZ",
                        "DE",
                        "DK",
                        "DO",
                        "DZ",
                        "EC",
                        "EE",
                        "EG",
                        "ES",
                        "FI",
                        "FR",
                        "GB",
                        "GR",
                        "GT",
                        "HK",
                        "HN",
                        "HU",
                        "ID",
                        "IE",
                        "IL",
                        "IN",
                        "IS",
                        "IT",
                        "JO",
                        "JP",
                        "KW",
                        "LB",
                        "LI",
                        "LT",
                        "LU",
                        "LV",
                        "MA",
                        "MC",
                        "MT",
                        "MX",
                        "MY",
                        "NI",
                        "NL",
                        "NO",
                        "NZ",
                        "OM",
                        "PA",
                        "PE",
                        "PH",
                        "PL",
                        "PS",
                        "PT",
                        "PY",
                        "QA",
                        "RO",
                        "SA",
                        "SE",
                        "SG",
                        "SK",
                        "SV",
                        "TH",
                        "TN",
                        "TR",
                        "TW",
                        "US",
                        "UY",
                        "VN",
                        "ZA"
                    ],
                    "external_urls": {
                        "spotify": "https://open.spotify.com/album/3T5bbO2BOnnjun6jKhJdjV"
                    },
                    "href": "https://api.spotify.com/v1/albums/3T5bbO2BOnnjun6jKhJdjV",
                    "id": "3T5bbO2BOnnjun6jKhJdjV",
                    "images": [
                        {
                            "height": 640,
                            "url": "https://i.scdn.co/image/8e061183f95439a75b25e7a2cb63a3a164f429b7",
                            "width": 640
                        },
                        {
                            "height": 300,
                            "url": "https://i.scdn.co/image/99d22604f33466a588b1c43e7b349d08ca75d433",
                            "width": 300
                        },
                        {
                            "height": 64,
                            "url": "https://i.scdn.co/image/fa94e2f46d35dbcf00fd26ca8801a8dc2ae1b182",
                            "width": 64
                        }
                    ],
                    "name": "Direct Hits",
                    "release_date": "2013-01-01",
                    "release_date_precision": "day",
                    "total_tracks": 18,
                    "type": "album",
                    "uri": "spotify:album:3T5bbO2BOnnjun6jKhJdjV"
                },
                "artists": [
                    {
                        "external_urls": {
                            "spotify": "https://open.spotify.com/artist/0C0XlULifJtAgn6ZNCW2eu"
                        },
                        "href": "https://api.spotify.com/v1/artists/0C0XlULifJtAgn6ZNCW2eu",
                        "id": "0C0XlULifJtAgn6ZNCW2eu",
                        "name": "The Killers",
                        "type": "artist",
                        "uri": "spotify:artist:0C0XlULifJtAgn6ZNCW2eu"
                    }
                ],
                "available_markets": [
                    "AD",
                    "AE",
                    "AR",
                    "AT",
                    "AU",
                    "BE",
                    "BG",
                    "BH",
                    "BO",
                    "BR",
                    "CA",
                    "CH",
                    "CL",
                    "CO",
                    "CR",
                    "CY",
                    "CZ",
                    "DE",
                    "DK",
                    "DO",
                    "DZ",
                    "EC",
                    "EE",
                    "EG",
                    "ES",
                    "FI",
                    "FR",
                    "GB",
                    "GR",
                    "GT",
                    "HK",
                    "HN",
                    "HU",
                    "ID",
                    "IE",
                    "IL",
                    "IN",
                    "IS",
                    "IT",
                    "JO",
                    "JP",
                    "KW",
                    "LB",
                    "LI",
                    "LT",
                    "LU",
                    "LV",
                    "MA",
                    "MC",
                    "MT",
                    "MX",
                    "MY",
                    "NI",
                    "NL",
                    "NO",
                    "NZ",
                    "OM",
                    "PA",
                    "PE",
                    "PH",
                    "PL",
                    "PS",
                    "PT",
                    "PY",
                    "QA",
                    "RO",
                    "SA",
                    "SE",
                    "SG",
                    "SK",
                    "SV",
                    "TH",
                    "TN",
                    "TR",
                    "TW",
                    "US",
                    "UY",
                    "VN",
                    "ZA"
                ],
                "disc_number": 1,
                "duration_ms": 223973,
                "explicit": false,
                "external_ids": {
                    "isrc": "USIR20400274"
                },
                "external_urls": {
                    "spotify": "https://open.spotify.com/track/2RvbnvBX3XKkHy8daq3PUT"
                },
                "href": "https://api.spotify.com/v1/tracks/2RvbnvBX3XKkHy8daq3PUT",
                "id": "2RvbnvBX3XKkHy8daq3PUT",
                "is_local": false,
                "name": "Mr. Brightside",
                "popularity": 47,
                "preview_url": null,
                "track_number": 1,
                "type": "track",
                "uri": "spotify:track:2RvbnvBX3XKkHy8daq3PUT"
            },
            {
                "album": {
                    "album_type": "single",
                    "artists": [
                        {
                            "external_urls": {
                                "spotify": "https://open.spotify.com/artist/0NxEYpGE9ZsM3GHeYHqHIw"
                            },
                            "href": "https://api.spotify.com/v1/artists/0NxEYpGE9ZsM3GHeYHqHIw",
                            "id": "0NxEYpGE9ZsM3GHeYHqHIw",
                            "name": "2 Friends Remixes",
                            "type": "artist",
                            "uri": "spotify:artist:0NxEYpGE9ZsM3GHeYHqHIw"
                        }
                    ],
                    "available_markets": [
                        "AD",
                        "AE",
                        "AR",
                        "AT",
                        "AU",
                        "BE",
                        "BG",
                        "BH",
                        "BO",
                        "BR",
                        "CA",
                        "CH",
                        "CL",
                        "CO",
                        "CR",
                        "CY",
                        "CZ",
                        "DE",
                        "DK",
                        "DO",
                        "DZ",
                        "EC",
                        "EE",
                        "EG",
                        "ES",
                        "FI",
                        "FR",
                        "GB",
                        "GR",
                        "GT",
                        "HK",
                        "HN",
                        "HU",
                        "ID",
                        "IE",
                        "IL",
                        "IN",
                        "IS",
                        "IT",
                        "JO",
                        "JP",
                        "KW",
                        "LB",
                        "LI",
                        "LT",
                        "LU",
                        "LV",
                        "MA",
                        "MC",
                        "MT",
                        "MX",
                        "MY",
                        "NI",
                        "NL",
                        "NO",
                        "NZ",
                        "OM",
                        "PA",
                        "PE",
                        "PH",
                        "PL",
                        "PS",
                        "PT",
                        "PY",
                        "QA",
                        "RO",
                        "SA",
                        "SE",
                        "SG",
                        "SK",
                        "SV",
                        "TH",
                        "TN",
                        "TR",
                        "TW",
                        "US",
                        "UY",
                        "VN",
                        "ZA"
                    ],
                    "external_urls": {
                        "spotify": "https://open.spotify.com/album/5f1wXxJR0mdlj2Nd09UtAi"
                    },
                    "href": "https://api.spotify.com/v1/albums/5f1wXxJR0mdlj2Nd09UtAi",
                    "id": "5f1wXxJR0mdlj2Nd09UtAi",
                    "images": [
                        {
                            "height": 640,
                            "url": "https://i.scdn.co/image/ab67616d0000b273bf134707d20f3a6941d64637",
                            "width": 640
                        },
                        {
                            "height": 300,
                            "url": "https://i.scdn.co/image/ab67616d00001e02bf134707d20f3a6941d64637",
                            "width": 300
                        },
                        {
                            "height": 64,
                            "url": "https://i.scdn.co/image/ab67616d00004851bf134707d20f3a6941d64637",
                            "width": 64
                        }
                    ],
                    "name": "Mr. Brightside (Original)",
                    "release_date": "2019-08-30",
                    "release_date_precision": "day",
                    "total_tracks": 1,
                    "type": "album",
                    "uri": "spotify:album:5f1wXxJR0mdlj2Nd09UtAi"
                },
                "artists": [
                    {
                        "external_urls": {
                            "spotify": "https://open.spotify.com/artist/0NxEYpGE9ZsM3GHeYHqHIw"
                        },
                        "href": "https://api.spotify.com/v1/artists/0NxEYpGE9ZsM3GHeYHqHIw",
                        "id": "0NxEYpGE9ZsM3GHeYHqHIw",
                        "name": "2 Friends Remixes",
                        "type": "artist",
                        "uri": "spotify:artist:0NxEYpGE9ZsM3GHeYHqHIw"
                    }
                ],
                "available_markets": [
                    "AD",
                    "AE",
                    "AR",
                    "AT",
                    "AU",
                    "BE",
                    "BG",
                    "BH",
                    "BO",
                    "BR",
                    "CA",
                    "CH",
                    "CL",
                    "CO",
                    "CR",
                    "CY",
                    "CZ",
                    "DE",
                    "DK",
                    "DO",
                    "DZ",
                    "EC",
                    "EE",
                    "EG",
                    "ES",
                    "FI",
                    "FR",
                    "GB",
                    "GR",
                    "GT",
                    "HK",
                    "HN",
                    "HU",
                    "ID",
                    "IE",
                    "IL",
                    "IN",
                    "IS",
                    "IT",
                    "JO",
                    "JP",
                    "KW",
                    "LB",
                    "LI",
                    "LT",
                    "LU",
                    "LV",
                    "MA",
                    "MC",
                    "MT",
                    "MX",
                    "MY",
                    "NI",
                    "NL",
                    "NO",
                    "NZ",
                    "OM",
                    "PA",
                    "PE",
                    "PH",
                    "PL",
                    "PS",
                    "PT",
                    "PY",
                    "QA",
                    "RO",
                    "SA",
                    "SE",
                    "SG",
                    "SK",
                    "SV",
                    "TH",
                    "TN",
                    "TR",
                    "TW",
                    "US",
                    "UY",
                    "VN",
                    "ZA"
                ],
                "disc_number": 1,
                "duration_ms": 214778,
                "explicit": false,
                "external_ids": {
                    "isrc": "USFYR1940401"
                },
                "external_urls": {
                    "spotify": "https://open.spotify.com/track/5XRuR2wBLylhBAK6HMIS29"
                },
                "href": "https://api.spotify.com/v1/tracks/5XRuR2wBLylhBAK6HMIS29",
                "id": "5XRuR2wBLylhBAK6HMIS29",
                "is_local": false,
                "name": "Mr. Brightside - Original",
                "popularity": 38,
                "preview_url": "https://p.scdn.co/mp3-preview/5609125721f562ce783d849b2a982a00548e481a?cid=b1eb900278bb40c4aad752d96dee75a3",
                "track_number": 1,
                "type": "track",
                "uri": "spotify:track:5XRuR2wBLylhBAK6HMIS29"
            }
        ],
        "limit": 3,
        "next": "https://api.spotify.com/v1/search?query=Mr+Brightside&type=track&offset=5&limit=3",
        "offset": 2,
        "previous": "https://api.spotify.com/v1/search?query=Mr+Brightside&type=track&offset=0&limit=3",
        "total": 532
    }
}